{
  "accessors": [
    {
      "bufferView": 2,
      "componentType": 5126,
      "count": 9546,
      "max": [
        27.716274261474609,
        3.0736720561981201,
        58.750511169433594
      ],
      "min": [
        -27.716274261474609,
        1.6669119596481323,
        -58.751468658447266
      ],
      "type": "VEC3"
    },
    {
      "bufferView": 2,
      "byteOffset": 114552,
      "componentType": 5126,
      "count": 9546,
      "max": [
        0.76316720247268677,
        1,
        0.34387919306755066
      ],
      "min": [
        -0.76316666603088379,
        0.64620119333267212,
        -0.34387499094009399
      ],
      "type": "VEC3"
    },
    {
      "bufferView": 3,
      "componentType": 5126,
      "count": 9546,
      "max": [
        -0.0039971061050891876,
        0.76316696405410767,
        0.99998372793197632,
        1
      ],
      "min": [
        -1,
        -0.76316666603088379,
        -0.99998372793197632,
        1
      ],
      "type": "VEC4"
    },
    {
      "bufferView": 1,
      "componentType": 5126,
      "count": 9546,
      "max": [
        0.73005098104476929,
        0.98958301544189453
      ],
      "min": [
        0.26994898915290833,
        0.010400000028312206
      ],
      "type": "VEC2"
    },
    {
      "bufferView": 0,
      "componentType": 5125,
      "count": 54912,
      "max": [
        9545
      ],
      "min": [
        0
      ],
      "type": "SCALAR"
    },
    {
      "bufferView": 2,
      "byteOffset": 229104,
      "componentType": 5126,
      "count": 221,
      "max": [
        -8.8872232437133789,
        2.9331419467926025,
        41.975181579589844
      ],
      "min": [
        -11.637404441833496,
        2.9331419467926025,
        39.241378784179688
      ],
      "type": "VEC3"
    },
    {
      "bufferView": 2,
      "byteOffset": 231756,
      "componentType": 5126,
      "count": 221,
      "max": [
        9.9999999747524271e-07,
        1,
        9.9999999747524271e-07
      ],
      "min": [
        0,
        1,
        -9.9999999747524271e-07
      ],
      "type": "VEC3"
    },
    {
      "bufferView": 3,
      "byteOffset": 152736,
      "componentType": 5126,
      "count": 221,
      "max": [
        -1,
        1.0000070460591814e-06,
        1.615086875972338e-05,
        1
      ],
      "min": [
        -1,
        -1.2112866265567845e-11,
        -6.4495776314288378e-05,
        1
      ],
      "type": "VEC4"
    },
    {
      "bufferView": 1,
      "byteOffset": 76368,
      "componentType": 5126,
      "count": 221,
      "max": [
        11.473733901977539,
        1.3294249773025513
      ],
      "min": [
        8.7622318267822266,
        -1.3293520212173462
      ],
      "type": "VEC2"
    },
    {
      "bufferView": 0,
      "byteOffset": 219648,
      "componentType": 5125,
      "count": 1152,
      "max": [
        220
      ],
      "min": [
        0
      ],
      "type": "SCALAR"
    },
    {
      "bufferView": 2,
      "byteOffset": 234408,
      "componentType": 5126,
      "count": 546,
      "max": [
        -8.8872232437133789,
        2.7831408977508545,
        43.150920867919922
      ],
      "min": [
        -14.937700271606445,
        2.7831399440765381,
        38.065570831298828
      ],
      "type": "VEC3"
    },
    {
      "bufferView": 2,
      "byteOffset": 240960,
      "componentType": 5126,
      "count": 546,
      "max": [
        9.9999999747524271e-07,
        1,
        9.9999999747524271e-07
      ],
      "min": [
        -4.9999998736893758e-06,
        1,
        -6.0000002122251317e-06
      ],
      "type": "VEC3"
    },
    {
      "bufferView": 3,
      "byteOffset": 156272,
      "componentType": 5126,
      "count": 546,
      "max": [
        -0.99999994039535522,
        1.0000151178246597e-06,
        0.00041218075784854591,
        1
      ],
      "min": [
        -1,
        -5.0012445171887521e-06,
        -0.00020740150648634881,
        1
      ],
      "type": "VEC4"
    },
    {
      "bufferView": 1,
      "byteOffset": 78136,
      "componentType": 5126,
      "count": 546,
      "max": [
        0.9300529956817627,
        0.98484599590301514
      ],
      "min": [
        0.06994599848985672,
        0.017480999231338501
      ],
      "type": "VEC2"
    },
    {
      "bufferView": 0,
      "byteOffset": 224256,
      "componentType": 5125,
      "count": 2880,
      "max": [
        545
      ],
      "min": [
        0
      ],
      "type": "SCALAR"
    },
    {
      "bufferView": 2,
      "byteOffset": 247512,
      "componentType": 5126,
      "count": 1250,
      "max": [
        23.891674041748047,
        3.2569808959960938,
        55.654060363769531
      ],
      "min": [
        -16.593547821044922,
        -2.6085739135742188,
        36.731884002685547
      ],
      "type": "VEC3"
    },
    {
      "bufferView": 2,
      "byteOffset": 262512,
      "componentType": 5126,
      "count": 1250,
      "max": [
        0.00011600000289035961,
        1,
        0.00013699999544769526
      ],
      "min": [
        -1.4000000192027073e-05,
        -1,
        -0.00015999999595806003
      ],
      "type": "VEC3"
    },
    {
      "bufferView": 3,
      "byteOffset": 165008,
      "componentType": 5126,
      "count": 1250,
      "max": [
        1,
        4.477382026379928e-05,
        0.99949061870574951,
        1
      ],
      "min": [
        0,
        -1.1767913747462444e-05,
        -0.99685961008071899,
        -1
      ],
      "type": "VEC4"
    },
    {
      "bufferView": 1,
      "byteOffset": 82504,
      "componentType": 5126,
      "count": 1250,
      "max": [
        23.891674041748047,
        3.0244460105895996
      ],
      "min": [
        -16.593547821044922,
        -2.841109037399292
      ],
      "type": "VEC2"
    },
    {
      "bufferView": 0,
      "byteOffset": 235776,
      "componentType": 5125,
      "count": 6912,
      "max": [
        1249
      ],
      "min": [
        0
      ],
      "type": "SCALAR"
    },
    {
      "bufferView": 2,
      "byteOffset": 277512,
      "componentType": 5126,
      "count": 1348,
      "max": [
        22.83741569519043,
        3.0941979885101318,
        54.651885986328125
      ],
      "min": [
        2.8630900382995605,
        -2.4318180084228516,
        39.375282287597656
      ],
      "type": "VEC3"
    },
    {
      "bufferView": 2,
      "byteOffset": 293688,
      "componentType": 5126,
      "count": 1348,
      "max": [
        0.61437177658081055,
        1,
        0.6094130277633667
      ],
      "min": [
        -0.6143762469291687,
        -1,
        -0.6093977689743042
      ],
      "type": "VEC3"
    },
    {
      "bufferView": 3,
      "byteOffset": 185008,
      "componentType": 5126,
      "count": 1348,
      "max": [
        1,
        0.61437171697616577,
        0.20177485048770905,
        1
      ],
      "min": [
        -1,
        -0.61437618732452393,
        -0.17572391033172607,
        1
      ],
      "type": "VEC4"
    },
    {
      "bufferView": 1,
      "byteOffset": 92504,
      "componentType": 5126,
      "count": 1348,
      "max": [
        0.69031202793121338,
        0.95542800426483154
      ],
      "min": [
        0.38743600249290466,
        0.82707202434539795
      ],
      "type": "VEC2"
    },
    {
      "bufferView": 0,
      "byteOffset": 263424,
      "componentType": 5125,
      "count": 7680,
      "max": [
        1347
      ],
      "min": [
        0
      ],
      "type": "SCALAR"
    },
    {
      "bufferView": 2,
      "byteOffset": 309864,
      "componentType": 5126,
      "count": 153,
      "max": [
        4.7284941673278809,
        -2.2828691005706787,
        58.693153381347656
      ],
      "min": [
        -4.7285780906677246,
        -2.3648409843444824,
        57.923488616943359
      ],
      "type": "VEC3"
    },
    {
      "bufferView": 2,
      "byteOffset": 311700,
      "componentType": 5126,
      "count": 153,
      "max": [
        0.00067500036675482988,
        -0.98317289352416992,
        0.1826779842376709
      ],
      "min": [
        -0.0011649997904896736,
        -0.99853610992431641,
        0.054091006517410278
      ],
      "type": "VEC3"
    },
    {
      "bufferView": 3,
      "byteOffset": 206576,
      "componentType": 5126,
      "count": 153,
      "max": [
        1,
        0.00067792506888508797,
        5.4554773669224232e-05,
        1
      ],
      "min": [
        0.99999940395355225,
        -0.0011669140076264739,
        -2.4773155018920079e-05,
        1
      ],
      "type": "VEC4"
    },
    {
      "bufferView": 1,
      "byteOffset": 103288,
      "componentType": 5126,
      "count": 153,
      "max": [
        0.93401998281478882,
        0.63373798131942749
      ],
      "min": [
        0.065978996455669403,
        0.36626198887825012
      ],
      "type": "VEC2"
    },
    {
      "bufferView": 0,
      "byteOffset": 294144,
      "componentType": 5125,
      "count": 768,
      "max": [
        152
      ],
      "min": [
        0
      ],
      "type": "SCALAR"
    },
    {
      "bufferView": 2,
      "byteOffset": 313536,
      "componentType": 5126,
      "count": 337,
      "max": [
        -3.1318318843841553,
        3.0941989421844482,
        41.841217041015625
      ],
      "min": [
        -5.6232810020446777,
        2.7635350227355957,
        39.375282287597656
      ],
      "type": "VEC3"
    },
    {
      "bufferView": 2,
      "byteOffset": 317580,
      "componentType": 5126,
      "count": 337,
      "max": [
        0.4785119891166687,
        1,
        0.47371706366539001
      ],
      "min": [
        -0.47851124405860901,
        0.87794023752212524,
        -0.47374111413955688
      ],
      "type": "VEC3"
    },
    {
      "bufferView": 3,
      "byteOffset": 209024,
      "componentType": 5126,
      "count": 337,
      "max": [
        -0.87808102369308472,
        0.4785119891166687,
        0.20178818702697754,
        1
      ],
      "min": [
        -1,
        -0.4785112738609314,
        -0.17571356892585754,
        1
      ],
      "type": "VEC4"
    },
    {
      "bufferView": 1,
      "byteOffset": 104512,
      "componentType": 5126,
      "count": 337,
      "max": [
        0.54789197444915771,
        0.84972298145294189
      ],
      "min": [
        0.52506697177886963,
        0.82707202434539795
      ],
      "type": "VEC2"
    },
    {
      "bufferView": 0,
      "byteOffset": 297216,
      "componentType": 5125,
      "count": 1920,
      "max": [
        336
      ],
      "min": [
        0
      ],
      "type": "SCALAR"
    },
    {
      "bufferView": 2,
      "byteOffset": 321624,
      "componentType": 5126,
      "count": 208,
      "max": [
        9.7060089111328125,
        3.119581937789917,
        18.305404663085938
      ],
      "min": [
        -9.741363525390625,
        3.1195740699768066,
        15.352317810058594
      ],
      "type": "VEC3"
    },
    {
      "bufferView": 2,
      "byteOffset": 324120,
      "componentType": 5126,
      "count": 208,
      "max": [
        7.9999999798019417e-06,
        1,
        1.2000000424450263e-05
      ],
      "min": [
        -7.0000000960135367e-06,
        1,
        -1.2999999853491317e-05
      ],
      "type": "VEC3"
    },
    {
      "bufferView": 3,
      "byteOffset": 214416,
      "componentType": 5126,
      "count": 208,
      "max": [
        -0.99999982118606567,
        7.9991004895418882e-06,
        0.00039065934834070504,
        1
      ],
      "min": [
        -1,
        -7.0006449277570937e-06,
        -0.00069069245364516973,
        1
      ],
      "type": "VEC4"
    },
    {
      "bufferView": 1,
      "byteOffset": 107208,
      "componentType": 5126,
      "count": 208,
      "max": [
        0.57670998573303223,
        0.65953600406646729
      ],
      "min": [
        0.42329001426696777,
        0.63726800680160522
      ],
      "type": "VEC2"
    },
    {
      "bufferView": 0,
      "byteOffset": 304896,
      "componentType": 5125,
      "count": 582,
      "max": [
        207
      ],
      "min": [
        0
      ],
      "type": "SCALAR"
    },
    {
      "bufferView": 2,
      "byteOffset": 326616,
      "componentType": 5126,
      "count": 3576,
      "max": [
        27.253347396850586,
        -1.7593259811401367,
        57.260936737060547
      ],
      "min": [
        -27.253311157226562,
        -2.6250019073486328,
        -56.132427215576172
      ],
      "type": "VEC3"
    },
    {
      "bufferView": 2,
      "byteOffset": 369528,
      "componentType": 5126,
      "count": 3576,
      "max": [
        0.50627398490905762,
        -0.86073172092437744,
        0.023023007437586784
      ],
      "min": [
        -0.50905382633209229,
        -1,
        -0.05819200724363327
      ],
      "type": "VEC3"
    },
    {
      "bufferView": 3,
      "byteOffset": 217744,
      "componentType": 5126,
      "count": 3576,
      "max": [
        1,
        0.50627487897872925,
        0.0092753013595938683,
        1
      ],
      "min": [
        0.86073416471481323,
        -0.50905478000640869,
        -0.0092839403077960014,
        1
      ],
      "type": "VEC4"
    },
    {
      "bufferView": 1,
      "byteOffset": 108872,
      "componentType": 5126,
      "count": 3576,
      "max": [
        0.99914497137069702,
        0.99953001737594604
      ],
      "min": [
        0.00085499999113380909,
        0.00046999999904073775
      ],
      "type": "VEC2"
    },
    {
      "bufferView": 0,
      "byteOffset": 307224,
      "componentType": 5125,
      "count": 20448,
      "max": [
        3575
      ],
      "min": [
        0
      ],
      "type": "SCALAR"
    },
    {
      "bufferView": 2,
      "byteOffset": 412440,
      "componentType": 5126,
      "count": 2491,
      "max": [
        23.891674041748047,
        2.9331419467926025,
        55.654060363769531
      ],
      "min": [
        -16.593547821044922,
        -2.6085739135742188,
        36.731884002685547
      ],
      "type": "VEC3"
    },
    {
      "bufferView": 2,
      "byteOffset": 442332,
      "componentType": 5126,
      "count": 2491,
      "max": [
        1,
        1,
        1
      ],
      "min": [
        -1,
        -1,
        -1
      ],
      "type": "VEC3"
    },
    {
      "bufferView": 3,
      "byteOffset": 274960,
      "componentType": 5126,
      "count": 2491,
      "max": [
        1,
        1,
        0.71601015329360962,
        1
      ],
      "min": [
        -1,
        -1,
        -0.70747667551040649,
        1
      ],
      "type": "VEC4"
    },
    {
      "bufferView": 1,
      "byteOffset": 137480,
      "componentType": 5126,
      "count": 2491,
      "max": [
        0.70059299468994141,
        0.96377897262573242
      ],
      "min": [
        0.30419299006462097,
        0.47513100504875183
      ],
      "type": "VEC2"
    },
    {
      "bufferView": 0,
      "byteOffset": 389016,
      "componentType": 5125,
      "count": 11856,
      "max": [
        2490
      ],
      "min": [
        0
      ],
      "type": "SCALAR"
    },
    {
      "bufferView": 2,
      "byteOffset": 472224,
      "componentType": 5126,
      "count": 1008,
      "max": [
        17.674543380737305,
        1.0786190032958984,
        59.649795532226562
      ],
      "min": [
        -8.5692234039306641,
        -0.61359602212905884,
        -59.652717590332031
      ],
      "type": "VEC3"
    },
    {
      "bufferView": 2,
      "byteOffset": 484320,
      "componentType": 5126,
      "count": 1008,
      "max": [
        0.074975982308387756,
        0.10961402952671051,
        1
      ],
      "min": [
        -0.074983038008213043,
        -0.10965101420879364,
        -1
      ],
      "type": "VEC3"
    },
    {
      "bufferView": 3,
      "byteOffset": 314816,
      "componentType": 5126,
      "count": 1008,
      "max": [
        1,
        0.52618056535720825,
        0.085848160088062286,
        1
      ],
      "min": [
        -1,
        -0.52617561817169189,
        -0.08584478497505188,
        1
      ],
      "type": "VEC4"
    },
    {
      "bufferView": 1,
      "byteOffset": 157408,
      "componentType": 5126,
      "count": 1008,
      "max": [
        0.57744097709655762,
        0.50619602203369141
      ],
      "min": [
        0.3527120053768158,
        0.49141600728034973
      ],
      "type": "VEC2"
    },
    {
      "bufferView": 0,
      "byteOffset": 436440,
      "componentType": 5125,
      "count": 4992,
      "max": [
        1007
      ],
      "min": [
        0
      ],
      "type": "SCALAR"
    },
    {
      "bufferView": 2,
      "byteOffset": 496416,
      "componentType": 5126,
      "count": 1340,
      "max": [
        23.210716247558594,
        2.9331400394439697,
        54.900566101074219
      ],
      "min": [
        -6.5402321815490723,
        -2.2643849849700928,
        38.445571899414062
      ],
      "type": "VEC3"
    },
    {
      "bufferView": 2,
      "byteOffset": 512496,
      "componentType": 5126,
      "count": 1340,
      "max": [
        0.79433584213256836,
        1,
        0.79052799940109253
      ],
      "min": [
        -0.7943350076675415,
        -0.98190099000930786,
        -0.79056286811828613
      ],
      "type": "VEC3"
    },
    {
      "bufferView": 3,
      "byteOffset": 330944,
      "componentType": 5126,
      "count": 1340,
      "max": [
        1,
        0.79433578252792358,
        0.67640209197998047,
        1
      ],
      "min": [
        -1,
        -0.7943350076675415,
        -0.67639964818954468,
        1
      ],
      "type": "VEC4"
    },
    {
      "bufferView": 1,
      "byteOffset": 165472,
      "componentType": 5126,
      "count": 1340,
      "max": [
        0.69342297315597534,
        0.95749998092651367
      ],
      "min": [
        0.3786349892616272,
        0.51989799737930298
      ],
      "type": "VEC2"
    },
    {
      "bufferView": 0,
      "byteOffset": 456408,
      "componentType": 5125,
      "count": 6144,
      "max": [
        1339
      ],
      "min": [
        0
      ],
      "type": "SCALAR"
    },
    {
      "bufferView": 2,
      "byteOffset": 528576,
      "componentType": 5126,
      "count": 6782,
      "max": [
        27.716274261474609,
        -0.97611302137374878,
        58.750205993652344
      ],
      "min": [
        -27.716274261474609,
        -2.6251099109649658,
        -58.750175476074219
      ],
      "type": "VEC3"
    },
    {
      "bufferView": 2,
      "byteOffset": 609960,
      "componentType": 5126,
      "count": 6782,
      "max": [
        1,
        0.10881598293781281,
        1
      ],
      "min": [
        -1,
        -1,
        -1
      ],
      "type": "VEC3"
    },
    {
      "bufferView": 3,
      "byteOffset": 352384,
      "componentType": 5126,
      "count": 6782,
      "max": [
        1,
        1,
        1,
        1
      ],
      "min": [
        -1,
        -1,
        -0.99999988079071045,
        -1
      ],
      "type": "VEC4"
    },
    {
      "bufferView": 1,
      "byteOffset": 176192,
      "componentType": 5126,
      "count": 6782,
      "max": [
        0.72982501983642578,
        0.98958301544189453
      ],
      "min": [
        0.27017500996589661,
        0.010408000089228153
      ],
      "type": "VEC2"
    },
    {
      "bufferView": 0,
      "byteOffset": 480984,
      "componentType": 5125,
      "count": 32832,
      "max": [
        6781
      ],
      "min": [
        0
      ],
      "type": "SCALAR"
    },
    {
      "bufferView": 2,
      "byteOffset": 691344,
      "componentType": 5126,
      "count": 2650,
      "max": [
        3.5290958881378174,
        1.7905149459838867,
        -47.338001251220703
      ],
      "min": [
        -15.476563453674316,
        -1.3254439830780029,
        -59.741539001464844
      ],
      "type": "VEC3"
    },
    {
      "bufferView": 2,
      "byteOffset": 723144,
      "componentType": 5126,
      "count": 2650,
      "max": [
        1,
        1,
        4.0000013541430235e-05
      ],
      "min": [
        -1,
        -1,
        -1
      ],
      "type": "VEC3"
    },
    {
      "bufferView": 3,
      "byteOffset": 460896,
      "componentType": 5126,
      "count": 2650,
      "max": [
        1,
        1,
        0.99999332427978516,
        1
      ],
      "min": [
        -1,
        -1,
        -0.99999344348907471,
        -1
      ],
      "type": "VEC4"
    },
    {
      "bufferView": 1,
      "byteOffset": 230448,
      "componentType": 5126,
      "count": 2650,
      "max": [
        0.62920498847961426,
        0.51202899217605591
      ],
      "min": [
        0.37734499573707581,
        0.0022829999215900898
      ],
      "type": "VEC2"
    },
    {
      "bufferView": 0,
      "byteOffset": 612312,
      "componentType": 5125,
      "count": 12576,
      "max": [
        2649
      ],
      "min": [
        0
      ],
      "type": "SCALAR"
    },
    {
      "bufferView": 2,
      "byteOffset": 754944,
      "componentType": 5126,
      "count": 7360,
      "max": [
        17.227407455444336,
        3.3769810199737549,
        45.127189636230469
      ],
      "min": [
        -17.227407455444336,
        2.933135986328125,
        36.089302062988281
      ],
      "type": "VEC3"
    },
    {
      "bufferView": 2,
      "byteOffset": 843264,
      "componentType": 5126,
      "count": 7360,
      "max": [
        1,
        1,
        1
      ],
      "min": [
        -1,
        -8.7999971583485603e-05,
        -1
      ],
      "type": "VEC3"
    },
    {
      "bufferView": 3,
      "byteOffset": 503296,
      "componentType": 5126,
      "count": 7360,
      "max": [
        1,
        1,
        0.90067911148071289,
        1
      ],
      "min": [
        -1,
        -1,
        -0.99686414003372192,
        -1
      ],
      "type": "VEC4"
    },
    {
      "bufferView": 1,
      "byteOffset": 251648,
      "componentType": 5126,
      "count": 7360,
      "max": [
        0.64330899715423584,
        0.87580001354217529
      ],
      "min": [
        0.35669100284576416,
        0.52131098508834839
      ],
      "type": "VEC2"
    },
    {
      "bufferView": 0,
      "byteOffset": 662616,
      "componentType": 5125,
      "count": 34944,
      "max": [
        7359
      ],
      "min": [
        0
      ],
      "type": "SCALAR"
    },
    {
      "bufferView": 2,
      "byteOffset": 931584,
      "componentType": 5126,
      "count": 17200,
      "max": [
        28.110488891601562,
        2.9521949291229248,
        59.749797821044922
      ],
      "min": [
        -28.110488891601562,
        -2.4871249198913574,
        -59.752719879150391
      ],
      "type": "VEC3"
    },
    {
      "bufferView": 2,
      "byteOffset": 1137984,
      "componentType": 5126,
      "count": 17200,
      "max": [
        1,
        0.69222694635391235,
        1
      ],
      "min": [
        -1,
        -0.69215697050094604,
        -1
      ],
      "type": "VEC3"
    },
    {
      "bufferView": 3,
      "byteOffset": 621056,
      "componentType": 5126,
      "count": 17200,
      "max": [
        1,
        1,
        0.99996030330657959,
        1
      ],
      "min": [
        -1,
        -1,
        -0.99999725818634033,
        1
      ],
      "type": "VEC4"
    },
    {
      "bufferView": 1,
      "byteOffset": 310528,
      "componentType": 5126,
      "count": 17200,
      "max": [
        0.72089600563049316,
        0.99004697799682617
      ],
      "min": [
        0.27910399436950684,
        0.009944000281393528
      ],
      "type": "VEC2"
    },
    {
      "bufferView": 0,
      "byteOffset": 802392,
      "componentType": 5125,
      "count": 95808,
      "max": [
        17199
      ],
      "min": [
        0
      ],
      "type": "SCALAR"
    },
    {
      "bufferView": 2,
      "byteOffset": 1344384,
      "componentType": 5126,
      "count": 7170,
      "max": [
        28.108524322509766,
        2.9645719528198242,
        59.742183685302734
      ],
      "min": [
        -28.108524322509766,
        -2.4996271133422852,
        -58.881832122802734
      ],
      "type": "VEC3"
    },
    {
      "bufferView": 2,
      "byteOffset": 1430424,
      "componentType": 5126,
      "count": 7170,
      "max": [
        1,
        1,
        1
      ],
      "min": [
        -1,
        -1,
        -1
      ],
      "type": "VEC3"
    },
    {
      "bufferView": 3,
      "byteOffset": 896256,
      "componentType": 5126,
      "count": 7170,
      "max": [
        1,
        1,
        0.99971592426300049,
        1
      ],
      "min": [
        -1,
        -1,
        -0.99959594011306763,
        1
      ],
      "type": "VEC4"
    },
    {
      "bufferView": 1,
      "byteOffset": 448128,
      "componentType": 5126,
      "count": 7170,
      "max": [
        0.73431098461151123,
        0.99798500537872314
      ],
      "min": [
        0.26568898558616638,
        0.0093139996752142906
      ],
      "type": "VEC2"
    },
    {
      "bufferView": 0,
      "byteOffset": 1185624,
      "componentType": 5125,
      "count": 33600,
      "max": [
        7169
      ],
      "min": [
        0
      ],
      "type": "SCALAR"
    },
    {
      "bufferView": 2,
      "byteOffset": 1516464,
      "componentType": 5126,
      "count": 6255,
      "max": [
        28.349170684814453,
        1.4199039936065674,
        59.749797821044922
      ],
      "min": [
        -28.349170684814453,
        -0.95483297109603882,
        -59.752719879150391
      ],
      "type": "VEC3"
    },
    {
      "bufferView": 2,
      "byteOffset": 1591524,
      "componentType": 5126,
      "count": 6255,
      "max": [
        1,
        1,
        1
      ],
      "min": [
        -1,
        -1,
        -1
      ],
      "type": "VEC3"
    },
    {
      "bufferView": 3,
      "byteOffset": 1010976,
      "componentType": 5126,
      "count": 6255,
      "max": [
        1,
        1,
        0.99999582767486572,
        1
      ],
      "min": [
        -1,
        -1,
        -0.99999880790710449,
        -1
      ],
      "type": "VEC4"
    },
    {
      "bufferView": 1,
      "byteOffset": 505488,
      "componentType": 5126,
      "count": 6255,
      "max": [
        0.73582202196121216,
        0.99799400568008423
      ],
      "min": [
        0.26417800784111023,
        0.0020059999078512192
      ],
      "type": "VEC2"
    },
    {
      "bufferView": 0,
      "byteOffset": 1320024,
      "componentType": 5125,
      "count": 31104,
      "max": [
        6254
      ],
      "min": [
        0
      ],
      "type": "SCALAR"
    },
    {
      "bufferView": 2,
      "byteOffset": 1666584,
      "componentType": 5126,
      "count": 3300,
      "max": [
        1.9276549816131592,
        0.50439697504043579,
        -56.583541870117188
      ],
      "min": [
        -1.927664041519165,
        -0.039321999996900558,
        -58.994216918945312
      ],
      "type": "VEC3"
    },
    {
      "bufferView": 2,
      "byteOffset": 1706184,
      "componentType": 5126,
      "count": 3300,
      "max": [
        1,
        1,
        1
      ],
      "min": [
        -1,
        -1,
        -1
      ],
      "type": "VEC3"
    },
    {
      "bufferView": 3,
      "byteOffset": 1111056,
      "componentType": 5126,
      "count": 3300,
      "max": [
        1,
        1,
        2.7661260901368223e-05,
        1
      ],
      "min": [
        -1,
        -1,
        -2.7696691176970489e-05,
        1
      ],
      "type": "VEC4"
    },
    {
      "bufferView": 1,
      "byteOffset": 555528,
      "componentType": 5126,
      "count": 3300,
      "max": [
        0.51606398820877075,
        0.5010719895362854
      ],
      "min": [
        0.48393601179122925,
        0.0083769997581839561
      ],
      "type": "VEC2"
    },
    {
      "bufferView": 0,
      "byteOffset": 1444440,
      "componentType": 5125,
      "count": 12672,
      "max": [
        3299
      ],
      "min": [
        0
      ],
      "type": "SCALAR"
    },
    {
      "bufferView": 2,
      "byteOffset": 1745784,
      "componentType": 5126,
      "count": 1419,
      "max": [
        28.110488891601562,
        2.9644649028778076,
        59.742195129394531
      ],
      "min": [
        -28.110488891601562,
        -2.4996030330657959,
        -59.742168426513672
      ],
      "type": "VEC3"
    },
    {
      "bufferView": 2,
      "byteOffset": 1762812,
      "componentType": 5126,
      "count": 1419,
      "max": [
        1,
        0.99622625112533569,
        1
      ],
      "min": [
        -1,
        -0.99619078636169434,
        -1
      ],
      "type": "VEC3"
    },
    {
      "bufferView": 3,
      "byteOffset": 1163856,
      "componentType": 5126,
      "count": 1419,
      "max": [
        1,
        1,
        0.0051702330820262432,
        1
      ],
      "min": [
        -1,
        -1,
        -0.0087957568466663361,
        1
      ],
      "type": "VEC4"
    },
    {
      "bufferView": 1,
      "byteOffset": 581928,
      "componentType": 5126,
      "count": 1419,
      "max": [
        0.66441798210144043,
        0.99067699909210205
      ],
      "min": [
        0.33558198809623718,
        0.0093139996752142906
      ],
      "type": "VEC2"
    },
    {
      "bufferView": 0,
      "byteOffset": 1495128,
      "componentType": 5125,
      "count": 6720,
      "max": [
        1418
      ],
      "min": [
        0
      ],
      "type": "SCALAR"
    }
  ],
  "asset": {
    "extras": {
      "author": "UMURdesign (https://sketchfab.com/umurdesign)",
      "license": "SKETCHFAB Standard (https://sketchfab.com/licenses)",
      "source": "https://sketchfab.com/3d-models/samsung-galaxy-s10-c31544ddbc41476f890666436c9cd318",
      "title": "Samsung Galaxy S10+"
    },
    "generator": "Sketchfab-5.38.0",
    "version": "2.0"
  },
  "bufferViews": [
    {
      "buffer": 0,
      "byteLength": 1522008,
      "byteOffset": 0,
      "name": "floatBufferViews",
      "target": 34963
    },
    {
      "buffer": 0,
      "byteLength": 593280,
      "byteOffset": 1522008,
      "byteStride": 8,
      "name": "floatBufferViews",
      "target": 34962
    },
    {
      "buffer": 0,
      "byteLength": 1779840,
      "byteOffset": 2115288,
      "byteStride": 12,
      "name": "floatBufferViews",
      "target": 34962
    },
    {
      "buffer": 0,
      "byteLength": 1186560,
      "byteOffset": 3895128,
      "byteStride": 16,
      "name": "floatBufferViews",
      "target": 34962
    }
  ],
  "buffers": [
    {
      "byteLength": 5081688,
      "uri": "scene.bin"
    }
  ],
  "images": [
    {
      "uri": "textures/speakers_baseColor.jpeg"
    },
    {
      "uri": "textures/flash_baseColor.jpeg"
    },
    {
      "uri": "textures/screen_baseColor.jpeg"
    },
    {
      "uri": "textures/screen_emissive.jpeg"
    }
  ],
  "materials": [
    {
      "doubleSided": true,
      "name": "back",
      "pbrMetallicRoughness": {
        "baseColorFactor": [
          0,
          0,
          0,
          1
        ],
        "metallicFactor": 0.46833334259999998,
        "roughnessFactor": 0.12287879710000001
      }
    },
    {
      "doubleSided": true,
      "name": "black_parts",
      "pbrMetallicRoughness": {
        "baseColorFactor": [
          0,
          0,
          0,
          1
        ],
        "metallicFactor": 0,
        "roughnessFactor": 0.59999999999999998
      }
    },
    {
      "doubleSided": true,
      "name": "cam_black",
      "pbrMetallicRoughness": {
        "baseColorFactor": [
          0,
          0,
          0,
          1
        ],
        "metallicFactor": 0,
        "roughnessFactor": 0.2865151608
      }
    },
    {
      "doubleSided": true,
      "name": "cam_circle",
      "pbrMetallicRoughness": {
        "baseColorFactor": [
          0.061563921200000003,
          0.061563921200000003,
          0.061563921200000003,
          1
        ],
        "metallicFactor": 0,
        "roughnessFactor": 0.59999999999999998
      }
    },
    {
      "doubleSided": true,
      "name": "flash",
      "pbrMetallicRoughness": {
        "baseColorFactor": [
          1,
          1,
          1,
          1
        ],
        "baseColorTexture": {
          "index": 1,
          "texCoord": 0
        },
        "metallicFactor": 0,
        "roughnessFactor": 0.59999999999999998
      }
    },
    {
      "doubleSided": true,
      "name": "front",
      "pbrMetallicRoughness": {
        "baseColorFactor": [
          0,
          0,
          0,
          1
        ],
        "metallicFactor": 0.5,
        "roughnessFactor": 0.10000000000000001
      }
    },
    {
      "alphaMode": "BLEND",
      "doubleSided": true,
      "name": "glass",
      "pbrMetallicRoughness": {
        "baseColorFactor": [
          1,
          1,
          1,
          0.074393948599999996
        ],
        "metallicFactor": 0.5,
        "roughnessFactor": 0.10000000000000001
      }
    },
    {
      "alphaMode": "BLEND",
      "doubleSided": true,
      "name": "glass_2",
      "pbrMetallicRoughness": {
        "baseColorFactor": [
          1,
          1,
          1,
          0.062272736500000002
        ],
        "metallicFactor": 0,
        "roughnessFactor": 0.59999999999999998
      }
    },
    {
      "doubleSided": true,
      "name": "lens",
      "pbrMetallicRoughness": {
        "baseColorFactor": [
          0,
          0.015880095899999998,
          0.059602645500000002,
          1
        ],
        "metallicFactor": 0.4259091002,
        "roughnessFactor": 0.068333342599999999
      }
    },
    {
      "doubleSided": true,
      "name": "lens2",
      "pbrMetallicRoughness": {
        "baseColorFactor": [
          0.083823070099999994,
          0.10736572749999999,
          0.39922295959999998,
          1
        ],
        "metallicFactor": 0.66833334259999999,
        "roughnessFactor": 0.1046969789
      }
    },
    {
      "doubleSided": true,
      "name": "metalic_noise",
      "pbrMetallicRoughness": {
        "baseColorFactor": [
          0.1144465553,
          0.1144465553,
          0.1144465553,
          1
        ],
        "metallicFactor": 0.49257576679999998,
        "roughnessFactor": 0.050151524400000001
      }
    },
    {
      "doubleSided": true,
      "name": "plastic",
      "pbrMetallicRoughness": {
        "baseColorFactor": [
          0.1088436742,
          0.1088436742,
          0.1088436742,
          1
        ],
        "metallicFactor": 0.3350000092,
        "roughnessFactor": 0.40772728200000002
      }
    },
    {
      "doubleSided": true,
      "name": "rear",
      "pbrMetallicRoughness": {
        "baseColorFactor": [
          0.3012687308,
          0.3012687308,
          0.3012687308,
          1
        ],
        "metallicFactor": 0.53500000920000002,
        "roughnessFactor": 0.24409091829999999
      }
    },
    {
      "doubleSided": true,
      "emissiveFactor": [
        0.62272736520000005,
        0.62272736520000005,
        0.62272736520000005
      ],
      "emissiveTexture": {
        "index": 3,
        "texCoord": 0
      },
      "name": "screen",
      "pbrMetallicRoughness": {
        "baseColorFactor": [
          1,
          1,
          1,
          1
        ],
        "baseColorTexture": {
          "index": 2,
          "texCoord": 0
        },
        "metallicFactor": 0.5,
        "roughnessFactor": 0.10000000000000001
      }
    },
    {
      "doubleSided": true,
      "name": "speakers",
      "pbrMetallicRoughness": {
        "baseColorFactor": [
          1,
          1,
          1,
          1
        ],
        "baseColorTexture": {
          "index": 0,
          "texCoord": 0
        },
        "metallicFactor": 0,
        "roughnessFactor": 0.59999999999999998
      }
    },
    {
      "doubleSided": true,
      "name": "stripe",
      "pbrMetallicRoughness": {
        "baseColorFactor": [
          0.16885626200000001,
          0.16885626200000001,
          0.16885626200000001,
          1
        ],
        "metallicFactor": 0.2986363729,
        "roughnessFactor": 0.16530303960000001
      }
    },
    {
      "doubleSided": true,
      "name": "text",
      "pbrMetallicRoughness": {
        "baseColorFactor": [
          0.123160171,
          0.123160171,
          0.123160171,
          1
        ],
        "metallicFactor": 0.39560606990000002,
        "roughnessFactor": 0.062272736500000002
      }
    },
    {
      "doubleSided": true,
      "name": "yellow",
      "pbrMetallicRoughness": {
        "baseColorFactor": [
          0.89471495170000004,
          0.82002086919999995,
          0.0022827635999999999,
          1
        ],
        "metallicFactor": 0.4259091002,
        "roughnessFactor": 0.4259091002
      }
    }
  ],
  "meshes": [
    {
      "primitives": [
        {
          "attributes": {
            "NORMAL": 1,
            "POSITION": 0,
            "TANGENT": 2,
            "TEXCOORD_0": 3
          },
          "indices": 4,
          "material": 0,
          "mode": 4
        }
      ]
    },
    {
      "primitives": [
        {
          "attributes": {
            "NORMAL": 6,
            "POSITION": 5,
            "TANGENT": 7,
            "TEXCOORD_0": 8
          },
          "indices": 9,
          "material": 7,
          "mode": 4
        }
      ]
    },
    {
      "primitives": [
        {
          "attributes": {
            "NORMAL": 11,
            "POSITION": 10,
            "TANGENT": 12,
            "TEXCOORD_0": 13
          },
          "indices": 14,
          "material": 4,
          "mode": 4
        }
      ]
    },
    {
      "primitives": [
        {
          "attributes": {
            "NORMAL": 16,
            "POSITION": 15,
            "TANGENT": 17,
            "TEXCOORD_0": 18
          },
          "indices": 19,
          "material": 6,
          "mode": 4
        }
      ]
    },
    {
      "primitives": [
        {
          "attributes": {
            "NORMAL": 21,
            "POSITION": 20,
            "TANGENT": 22,
            "TEXCOORD_0": 23
          },
          "indices": 24,
          "material": 8,
          "mode": 4
        }
      ]
    },
    {
      "primitives": [
        {
          "attributes": {
            "NORMAL": 26,
            "POSITION": 25,
            "TANGENT": 27,
            "TEXCOORD_0": 28
          },
          "indices": 29,
          "material": 14,
          "mode": 4
        }
      ]
    },
    {
      "primitives": [
        {
          "attributes": {
            "NORMAL": 31,
            "POSITION": 30,
            "TANGENT": 32,
            "TEXCOORD_0": 33
          },
          "indices": 34,
          "material": 9,
          "mode": 4
        }
      ]
    },
    {
      "primitives": [
        {
          "attributes": {
            "NORMAL": 36,
            "POSITION": 35,
            "TANGENT": 37,
            "TEXCOORD_0": 38
          },
          "indices": 39,
          "material": 16,
          "mode": 4
        }
      ]
    },
    {
      "primitives": [
        {
          "attributes": {
            "NORMAL": 41,
            "POSITION": 40,
            "TANGENT": 42,
            "TEXCOORD_0": 43
          },
          "indices": 44,
          "material": 13,
          "mode": 4
        }
      ]
    },
    {
      "primitives": [
        {
          "attributes": {
            "NORMAL": 46,
            "POSITION": 45,
            "TANGENT": 47,
            "TEXCOORD_0": 48
          },
          "indices": 49,
          "material": 2,
          "mode": 4
        }
      ]
    },
    {
      "primitives": [
        {
          "attributes": {
            "NORMAL": 51,
            "POSITION": 50,
            "TANGENT": 52,
            "TEXCOORD_0": 53
          },
          "indices": 54,
          "material": 1,
          "mode": 4
        }
      ]
    },
    {
      "primitives": [
        {
          "attributes": {
            "NORMAL": 56,
            "POSITION": 55,
            "TANGENT": 57,
            "TEXCOORD_0": 58
          },
          "indices": 59,
          "material": 3,
          "mode": 4
        }
      ]
    },
    {
      "primitives": [
        {
          "attributes": {
            "NORMAL": 61,
            "POSITION": 60,
            "TANGENT": 62,
            "TEXCOORD_0": 63
          },
          "indices": 64,
          "material": 5,
          "mode": 4
        }
      ]
    },
    {
      "primitives": [
        {
          "attributes": {
            "NORMAL": 66,
            "POSITION": 65,
            "TANGENT": 67,
            "TEXCOORD_0": 68
          },
          "indices": 69,
          "material": 11,
          "mode": 4
        }
      ]
    },
    {
      "primitives": [
        {
          "attributes": {
            "NORMAL": 71,
            "POSITION": 70,
            "TANGENT": 72,
            "TEXCOORD_0": 73
          },
          "indices": 74,
          "material": 10,
          "mode": 4
        }
      ]
    },
    {
      "primitives": [
        {
          "attributes": {
            "NORMAL": 76,
            "POSITION": 75,
            "TANGENT": 77,
            "TEXCOORD_0": 78
          },
          "indices": 79,
          "material": 12,
          "mode": 4
        }
      ]
    },
    {
      "primitives": [
        {
          "attributes": {
            "NORMAL": 81,
            "POSITION": 80,
            "TANGENT": 82,
            "TEXCOORD_0": 83
          },
          "indices": 84,
          "material": 12,
          "mode": 4
        }
      ]
    },
    {
      "primitives": [
        {
          "attributes": {
            "NORMAL": 86,
            "POSITION": 85,
            "TANGENT": 87,
            "TEXCOORD_0": 88
          },
          "indices": 89,
          "material": 12,
          "mode": 4
        }
      ]
    },
    {
      "primitives": [
        {
          "attributes": {
            "NORMAL": 91,
            "POSITION": 90,
            "TANGENT": 92,
            "TEXCOORD_0": 93
          },
          "indices": 94,
          "material": 17,
          "mode": 4
        }
      ]
    },
    {
      "primitives": [
        {
          "attributes": {
            "NORMAL": 96,
            "POSITION": 95,
            "TANGENT": 97,
            "TEXCOORD_0": 98
          },
          "indices": 99,
          "material": 15,
          "mode": 4
        }
      ]
    }
  ],
  "nodes": [
    {
      "children": [
        1
      ],
      "name": "RootNode (gltf orientation matrix)",
      "rotation": [
        -0.70710678118654746,
        -0,
        -0,
        0.70710678118654757
      ]
    },
    {
      "children": [
        2
      ],
      "name": "RootNode (model correction matrix)"
    },
    {
      "children": [
        3,
        4,
        5,
        6,
        7,
        8,
        9,
        10,
        11,
        12,
        13,
        14,
        15,
        16,
        17,
        18,
        19,
        20,
        21,
        22
      ],
      "name": "S10+.obj.cleaner.materialmerger.gles"
    },
    {
      "mesh": 0,
      "name": ""
    },
    {
      "mesh": 1,
      "name": ""
    },
    {
      "mesh": 2,
      "name": ""
    },
    {
      "mesh": 3,
      "name": ""
    },
    {
      "mesh": 4,
      "name": ""
    },
    {
      "mesh": 5,
      "name": ""
    },
    {
      "mesh": 6,
      "name": ""
    },
    {
      "mesh": 7,
      "name": ""
    },
    {
      "mesh": 8,
      "name": ""
    },
    {
      "mesh": 9,
      "name": ""
    },
    {
      "mesh": 10,
      "name": ""
    },
    {
      "mesh": 11,
      "name": ""
    },
    {
      "mesh": 12,
      "name": ""
    },
    {
      "mesh": 13,
      "name": ""
    },
    {
      "mesh": 14,
      "name": ""
    },
    {
      "mesh": 15,
      "name": ""
    },
    {
      "mesh": 16,
      "name": ""
    },
    {
      "mesh": 17,
      "name": ""
    },
    {
      "mesh": 18,
      "name": ""
    },
    {
      "mesh": 19,
      "name": ""
    }
  ],
  "samplers": [
    {
      "magFilter": 9729,
      "minFilter": 9987,
      "wrapS": 10497,
      "wrapT": 10497
    }
  ],
  "scene": 0,
  "scenes": [
    {
      "name": "OSG_Scene",
      "nodes": [
        0
      ]
    }
  ],
  "textures": [
    {
      "sampler": 0,
      "source": 0
    },
    {
      "sampler": 0,
      "source": 1
    },
    {
      "sampler": 0,
      "source": 2
    },
    {
      "sampler": 0,
      "source": 3
    }
  ]
}

